%YAML 1.1
%TAG !u! tag:unity3d.com,2011:
--- !u!1045 &1
EditorBuildSettings:
  m_ObjectHideFlags: 0
  serializedVersion: 2
  m_Scenes:
  - enabled: 0
    path: Assets/SampleScenes/Scenes/2dCharacter.unity
  - enabled: 0
    path: Assets/SampleScenes/Scenes/AircraftJet2Axis.unity
  - enabled: 0
    path: Assets/SampleScenes/Scenes/AircraftJetAI.unity
  - enabled: 0
    path: Assets/SampleScenes/Scenes/AircraftPropeller4Axis.unity
  - enabled: 0
    path: Assets/SampleScenes/Scenes/AircraftPropellerAI.unity
  - enabled: 0
    path: Assets/SampleScenes/Scenes/Car.unity
  - enabled: 0
    path: Assets/SampleScenes/Scenes/CarAIWaypointBased.unity
  - enabled: 0
    path: Assets/SampleScenes/Scenes/CharacterFirstPerson.unity
  - enabled: 0
    path: Assets/SampleScenes/Scenes/CharacterThirdPerson.unity
  - enabled: 0
    path: Assets/SampleScenes/Scenes/CharacterThirdPersonAI.unity
  - enabled: 0
    path: Assets/SampleScenes/Scenes/Particles.unity
  - enabled: 0
    path: Assets/SampleScenes/Scenes/RollerBall.unity
  - enabled: 1
    path: Assets/1st_scene.unity
